// Jest Snapshot v1, https://goo.gl/fbAQLP

exports[`CountrySelection component tests Should match snapshot 1`] = `
<div>
  <button
    className="countrySelection_button"
    disabled={false}
    key="0"
    onClick={[Function]}
  >
    GB
  </button>
  <button
    className="countrySelection_button"
    disabled={true}
    key="1"
    onClick={[Function]}
  >
    US
  </button>
</div>
`;
